%YAML 1.1
%TAG !u! tag:unity3d.com,2011:
--- !u!21 &2100000
Material:
  serializedVersion: 6
  m_ObjectHideFlags: 0
  m_CorrespondingSourceObject: {fileID: 0}
  m_PrefabInstance: {fileID: 0}
  m_PrefabAsset: {fileID: 0}
  m_Name: Branches_1
  m_Shader: {fileID: 14000, guid: 0000000000000000f000000000000000, type: 0}
  m_ShaderKeywords: EFFECT_HUE_VARIATION GEOM_TYPE_BRANCH_DETAIL _ALBEDOCONTRIBUTION
  m_LightmapFlags: 5
  m_EnableInstancingVariants: 1
  m_DoubleSidedGI: 0
  m_CustomRenderQueue: -1
  stringTagMap: {}
  disabledShaderPasses:
  - DBufferMesh_M
  - DBufferMesh_AO
  - DBufferMesh_MAO
  - Mesh_Emissive
  - DBufferMesh_MS
  - DBufferMesh_AOS
  - DBufferMesh_MAOS
  m_SavedProperties:
    serializedVersion: 3
    m_TexEnvs:
    - _BaseColorMap:
        m_Texture: {fileID: 0}
        m_Scale: {x: 1, y: 1}
        m_Offset: {x: 0, y: 0}
    - _BumpMap:
        m_Texture: {fileID: 2800000, guid: 2b46b029d8dc37049aebb484e79998ff, type: 3}
        m_Scale: {x: 1, y: 1}
        m_Offset: {x: 0, y: 0}
    - _DetailTex:
        m_Texture: {fileID: 2800000, guid: 9654cfdd87d7daf429b8931c28d7a93c, type: 3}
        m_Scale: {x: 1, y: 1}
        m_Offset: {x: 0, y: 0}
    - _EmissiveColorMap:
        m_Texture: {fileID: 0}
        m_Scale: {x: 1, y: 1}
        m_Offset: {x: 0, y: 0}
    - _GlossMap:
        m_Texture: {fileID: 0}
        m_Scale: {x: 1, y: 1}
        m_Offset: {x: 0, y: 0}
    - _MainTex:
        m_Texture: {fileID: 2800000, guid: 9654cfdd87d7daf429b8931c28d7a93c, type: 3}
        m_Scale: {x: 1, y: 1}
        m_Offset: {x: 0, y: 0}
    - _MaskMap:
        m_Texture: {fileID: 0}
        m_Scale: {x: 1, y: 1}
        m_Offset: {x: 0, y: 0}
    - _NormalMap:
        m_Texture: {fileID: 0}
        m_Scale: {x: 1, y: 1}
        m_Offset: {x: 0, y: 0}
    m_Floats:
    - _AORemapMax: 1
    - _AORemapMin: 0
    - _AlbedoMode: 1
    - _Cull: 2
    - _Cutoff: 0.33
    - _DecalBlend: 0.5
    - _DecalMaskMapBlueScale: 1
    - _DecalMeshDepthBias: 0
    - _DecalStencilRef: 16
    - _DecalStencilWriteMask: 16
    - _DrawOrder: 0
    - _Emissive: 0
    - _EmissiveExposureWeight: 1
    - _EmissiveIntensity: 1
    - _EmissiveIntensityUnit: 0
    - _MaskBlendMode: 4
    - _MaskBlendSrc: 1
    - _MaskmapAO: 0
    - _MaskmapMetal: 0
    - _MaskmapSmoothness: 1
    - _MetallicScale: 1
    - _NormalBlendSrc: 0
    - _ShadowStrength: 1
    - _Shininess: 0.078125
    - _SmoothnessRemapMax: 1
    - _SmoothnessRemapMin: 0
    - _SquashAmount: 1
    - _TranslucencyViewDependency: 0.7
    - _UseEmissiveIntensity: 0
    - _WindQuality: 4
    m_Colors:
    - _BaseColor: {r: 1, g: 1, b: 1, a: 1}
    - _Color: {r: 1, g: 1, b: 1, a: 1}
    - _EmissiveColor: {r: 0, g: 0, b: 0, a: 1}
    - _EmissiveColorHDR: {r: 0, g: 0, b: 0, a: 1}
    - _EmissiveColorLDR: {r: 0, g: 0, b: 0, a: 1}
    - _HueVariation: {r: 1, g: 0.5, b: 0, a: 0.1}
    - _SpecColor: {r: 0.5, g: 0.5, b: 0.5, a: 1}
    - _TranslucencyColor: {r: 0.73, g: 0.85, b: 0.40999997, a: 1}
    - _TreeInstanceColor: {r: 1, g: 1, b: 1, a: 1}
    - _TreeInstanceScale: {r: 1, g: 1, b: 1, a: 1}
